<?xml version="1.0" encoding="UTF-8"?>
<!--Generator: Apple Native CoreSVG 232.5-->
<!DOCTYPE svg
PUBLIC "-//W3C//DTD SVG 1.1//EN"
       "http://www.w3.org/Graphics/SVG/1.1/DTD/svg11.dtd">
<svg version="1.1" xmlns="http://www.w3.org/2000/svg" xmlns:xlink="http://www.w3.org/1999/xlink" width="10.4543" height="21.3267">
 <g>
  <rect height="21.3267" opacity="0" width="10.4543" x="0" y="0"/>
  <path d="M6.87264 19.6428C6.30623 19.594 5.60311 19.7503 5.12459 20.0432C4.91951 20.1604 4.89021 20.346 5.066 20.5022C5.50545 20.9026 6.17928 21.2053 6.75545 21.2444C7.35115 21.3225 8.06404 21.137 8.54256 20.7757C8.69881 20.6682 8.70857 20.5022 8.56209 20.3655C8.1324 19.9651 7.45857 19.6819 6.87264 19.6428ZM8.92342 16.3421C8.61092 16.8206 8.43514 17.5237 8.45467 18.0901C8.49373 18.6858 8.76717 19.3694 9.14803 19.7893C9.27498 19.9358 9.43123 19.9358 9.55818 19.7796C9.93904 19.3303 10.1441 18.6175 10.0855 18.012C10.0465 17.4456 9.76326 16.7717 9.37264 16.3225C9.22615 16.1467 9.05037 16.1565 8.92342 16.3421ZM4.11873 16.9964C3.58162 16.801 2.8492 16.7815 2.30232 16.9475C2.08748 17.0159 2.02889 17.1819 2.14607 17.3772C2.46834 17.8753 3.04451 18.3342 3.58162 18.5296C4.1285 18.7542 4.87068 18.7542 5.42732 18.5198C5.61287 18.4514 5.6617 18.305 5.55428 18.1292C5.24178 17.6311 4.66561 17.1819 4.11873 16.9964ZM6.93123 14.3401C6.51131 14.721 6.14998 15.346 6.04256 15.9026C5.91561 16.4885 6.0035 17.221 6.26717 17.719C6.34529 17.9046 6.50154 17.9339 6.66756 17.8167C7.13631 17.4749 7.51717 16.8401 7.61482 16.2346C7.73201 15.678 7.63436 14.9456 7.37068 14.4182C7.28279 14.2034 7.09725 14.1741 6.93123 14.3401ZM0.00740236 13.2171C0.0855274 13.7835 0.427324 14.4475 0.847246 14.8577C1.2574 15.2874 1.93123 15.5803 2.5367 15.5999C2.73201 15.6096 2.83943 15.4827 2.81014 15.2874C2.71248 14.6917 2.37068 14.0569 1.95076 13.676C1.53084 13.2757 0.886309 12.9632 0.319902 12.8948C0.0855274 12.8655-0.0316601 12.9925 0.00740236 13.2171ZM5.60311 12.3772C5.066 12.5628 4.48982 12.9925 4.15779 13.4514C3.80623 13.9104 3.60115 14.6038 3.62068 15.2092C3.64021 15.3948 3.76717 15.4925 3.96248 15.4632C4.54842 15.3264 5.16365 14.9065 5.47615 14.3987C5.79842 13.9007 6.01326 13.2073 5.9742 12.6311C5.9742 12.3967 5.82771 12.2991 5.60311 12.3772ZM3.97225 10.0921C3.51326 10.4632 3.1324 11.0882 3.01521 11.6643C2.98592 11.8401 3.08357 11.9768 3.26912 11.9866C3.87459 12.0061 4.56795 11.7425 5.0074 11.3518C5.44686 10.971 5.83748 10.3362 5.96443 9.76979C5.99373 9.55495 5.87654 9.40847 5.6617 9.41823C5.07576 9.46706 4.40193 9.72097 3.97225 10.0921ZM0.017168 8.81276C-0.0414258 9.38894 0.114824 10.1018 0.427324 10.6096C0.720293 11.137 1.29646 11.596 1.86287 11.7522C2.03865 11.8108 2.1949 11.7132 2.21443 11.5178C2.27303 10.9612 2.10701 10.2483 1.79451 9.7405C1.48201 9.25222 0.925371 8.78347 0.407793 8.57839C0.202715 8.4905 0.0366992 8.57839 0.017168 8.81276ZM4.50936 6.81081C3.95271 7.00612 3.37654 7.44558 3.06404 7.95339C2.95662 8.10964 3.01521 8.27565 3.191 8.35378C3.74764 8.57839 4.48006 8.57839 5.0367 8.35378C5.60311 8.13894 6.18904 7.67019 6.47225 7.17214C6.58943 6.99636 6.53084 6.83034 6.316 6.76198C5.75936 6.60573 5.0367 6.6155 4.50936 6.81081ZM1.22811 4.25222C0.974199 4.78933 0.876543 5.51198 0.983965 6.07839C1.09139 6.67409 1.47225 7.29909 1.96053 7.65065C2.10701 7.76784 2.26326 7.71901 2.36092 7.54323C2.61482 7.03542 2.70271 6.31276 2.57576 5.73659C2.45857 5.17019 2.08748 4.54519 1.67732 4.15456C1.52107 4.01784 1.33553 4.0569 1.22811 4.25222ZM6.27693 3.99831C5.70076 4.10573 5.066 4.47683 4.70467 4.92604C4.58748 5.06276 4.61678 5.22878 4.77303 5.3362C5.29061 5.63894 6.02303 5.73659 6.5992 5.58034C7.17537 5.45339 7.81014 5.07253 8.18123 4.64284C8.32771 4.46706 8.28865 4.29128 8.08357 4.20339C7.566 3.96901 6.85311 3.88112 6.27693 3.99831ZM3.39607 0.990498C3.06404 1.48854 2.86873 2.20144 2.90779 2.76784C2.91756 3.36354 3.21053 4.03737 3.64021 4.46706C3.7867 4.60378 3.95271 4.58425 4.06014 4.428C4.3824 3.92995 4.57771 3.21706 4.52889 2.65065C4.48982 2.09401 4.22615 1.42995 3.85506 0.970966C3.69881 0.795185 3.52303 0.814716 3.39607 0.990498ZM8.43514 0.00416947C7.86873 0.0920601 7.2242 0.433857 6.81404 0.834248C6.40389 1.23464 6.08162 1.90847 6.01326 2.47487C5.99373 2.67019 6.10115 2.78737 6.29646 2.77761C6.89217 2.74831 7.55623 2.43581 7.96639 1.97683C8.35701 1.56667 8.67928 0.912373 8.76717 0.326435C8.7867 0.101826 8.66951-0.0251274 8.43514 0.00416947Z" fill="#ffffff" fill-opacity="0.85"/>
 </g>
</svg>
